{
	"pattrstorage" : 	{
		"name" : "u845000342",
		"slots" : 		{
			"1" : 			{
				"id" : 1,
				"data" : 				{
					"ControlCount" : [ 9 ],
					"ControlJoint" : [ 6 ],
					"EncodeCount" : [ 9 ],
					"MocapEndFrame" : [ 6503 ],
					"MocapStartFrame" : [ 6503 ]
				}

			}
,
			"2" : 			{
				"id" : 2,
				"data" : 				{
					"ControlCount" : [ 2 ],
					"ControlJoint" : [ 1 ],
					"EncodeCount" : [ 3 ],
					"MocapEndFrame" : [ 10486 ],
					"MocapStartFrame" : [ 10486 ]
				}

			}
,
			"5" : 			{
				"id" : 5,
				"data" : 				{
					"ControlCount" : [ 2 ],
					"ControlJoint" : [ 17 ],
					"EncodeCount" : [ 3 ],
					"MocapEndFrame" : [ 29500 ],
					"MocapStartFrame" : [ 28500 ]
				}

			}

		}

	}

}
